1.6719,-0.303356
-0.548742,-0.311322
-0.958401,-0.997643
-1.12627,-0.931308
-0.572357,-1.01382
-0.672102,-0.0526169
-0.652814,0.741561
-0.292617,-3.14818
0.769836,-0.314212
-1.09148,-0.850177
-0.294145,-1.0967
1.35294,0.0240488
2.94873,-0.286877
-0.118023,-0.13865
0.936466,0.84044
0.202927,1.44855
0.984348,-1.00749
-0.0941328,-0.0937808
0.878893,0.466496
-0.0862881,-0.199776
0.882326,1.48418
-0.932835,0.408599
1.91994,1.14465
0.899316,-1.97346
-0.174028,-1.55447
1.67515,1.07251
0.143552,-0.434422
-1.68296,-1.91488
0.147181,-1.31133
0.223062,-2.52728
-1.54765,1.11234
0.538053,-1.88015
1.21416,-0.192975
-1.5037,0.503171
1.28306,1.16005
-0.493471,0.501803
1.43716,-0.466222
-0.578042,1.08732
0.308489,-0.080891
-0.230505,0.413045
0.00270392,-0.518568
0.616307,-1.17809
-1.82419,-1.89118
-1.07546,-1.48615
-1.08912,-1.53371
-0.886991,1.17706
-1.08125,-0.938171
0.302147,0.597528
0.956427,0.587227
-0.171047,-1.00469
-1.23368,0.117913
0.692467,0.756807
0.146605,-0.662752
-0.0449233,0.234427
-1.78416,2.12616
-0.144487,0.24079
0.918972,0.493223
-0.378462,-1.02669
-1.17996,-0.616298
1.41003,0.899255
-0.806554,0.443812
-1.94023,0.599776
-1.41992,-0.261508
0.105841,-0.879523
1.35893,0.630156
1.71549,0.435296
-0.216259,-1.01869
0.423393,0.263442
0.404832,-0.0631669
0.340452,-1.03561
0.963272,-0.224269
0.0904272,0.0403728
0.867607,-1.25645
-1.59673,0.0601903
0.530715,-0.951668
-0.784866,-1.42008
-0.932355,0.651965
-1.06942,-0.222303
0.0503874,0.241243
0.959125,1.23295
0.623679,-1.2436
0.561,-0.351907
0.356754,0.459977
0.690095,0.193037
-1.22001,1.20315
0.46883,-0.99556
-0.0963165,-1.07197
0.542895,-0.259245
0.0877162,0.784978
0.766941,-0.242045
-0.148535,0.154674
0.0552731,-0.359685
-0.844201,0.11819
-0.9402,0.0843893
1.04303,0.31031
1.45609,0.415289
-0.040685,0.115713
0.174923,-1.26011
0.900206,-0.662612
-2.75577,0.551164
-0.860202,0.73346
-0.66409,-1.72551
1.65048,-0.611385
-1.24795,-0.00254245
-1.56878,0.385089
-0.324255,-1.32104
1.70043,-0.250102
-1.01821,0.246365
1.30782,0.606241
-1.06474,-1.07182
-0.122881,-0.260273
-0.8094,0.752143
-1.72297,-0.0758078
1.01357,-0.129886
0.253138,-0.172347
-2.8349,-0.143046
0.491259,-0.134168
0.388134,0.976267
0.759405,1.04333
-0.146211,-0.0278027
0.705904,-1.91395
-0.986561,1.49591
0.100389,0.535186
-1.85985,0.436034
0.195574,0.260865
-0.515969,-1.24921
0.941177,0.5163
0.0271296,0.429057
-0.433768,0.0580273
0.832192,-1.99813
0.998009,-0.873316
0.647703,-0.0920604
-0.863994,-0.477997
-0.775217,-0.055825
0.220746,0.971762
0.806564,-0.324581
-1.42719,-0.839855
-0.655588,1.12025
-1.24513,0.201775
0.670438,1.41082
0.211376,1.79984
0.493488,-0.901085
-1.66498,-0.0457875
0.846149,-0.806976
-0.35945,0.883709
-1.78546,0.319778
-1.07287,1.27906
-1.53612,1.74748
-0.436831,1.41724
-0.166033,1.04578
-0.26178,0.924482
0.139259,-0.290858
0.721697,1.17842
0.589926,0.415285
0.865181,-0.57285
-0.692417,-1.57198
-1.73021,1.52064
-0.821781,-0.888961
-1.30256,-0.0689173
-0.163176,-1.09108
0.454881,0.578753
1.01406,0.550112
-0.399643,-0.536601
0.992872,-1.82524
-0.150644,-0.438231
-0.542981,-0.0721782
0.233914,-0.359753
-1.40001,0.546173
2.88819,-0.890899
1.524,-0.328347
-0.539885,0.057329
-0.0973481,-0.55868
0.112907,0.609849
0.89829,0.598274
2.74131,-1.00848
-1.01896,0.913135
0.69136,1.12416
-0.969362,-2.02894
0.829987,-0.998905
0.124964,0.40633
1.1035,-0.655295
-0.375763,-1.52887
-1.07845,-0.873307
0.110959,1.18943
-1.17752,0.71129
0.411541,1.15057
0.428022,-0.0949754
-0.19965,-0.831289
0.199391,-0.15105
-1.14582,-1.38074
1.22969,-0.318811
-0.77763,-0.76411
-0.966388,-0.693432
0.118125,1.54385
0.962113,-0.625284
2.35239,-0.181638
-0.980252,-1.06809
-0.15459,-1.29188
-0.763783,-0.933815
0.621905,-1.48769
1.04799,0.356414
1.86214,-0.45256
1.22572,-0.755015
-0.0170503,-0.388988
1.17239,1.081
0.669138,0.59047
0.886555,0.00715778
-0.69597,0.570158
-0.093959,-0.936652
-0.120723,-0.152676
-1.25581,0.00535104
-0.424445,0.512246
1.38899,0.735513
0.581896,-0.511265
-0.390649,1.82628
0.914802,-0.266352
-1.4441,0.776769
-0.670177,0.756279
-0.241413,-0.510153
-1.26827,-0.649001
0.42895,0.507893
0.457816,-1.96505
0.711861,-1.75197
0.364293,-1.08034
1.23989,-0.975951
-0.416898,-1.46982
0.602845,0.708069
1.45322,2.51934
1.80032,0.31456
0.855786,-0.60371
0.165658,0.336943
-0.661669,-0.571463
1.55403,1.48414
-1.15576,0.577496
-2.0332,1.1091
-0.789111,-0.981393
0.0202805,-0.586295
-0.532995,0.809523
-0.402356,0.190959
1.54459,1.99262
-0.936031,0.292372
0.2849,0.431618
0.804201,0.8012
1.54936,-0.771508
0.572941,-1.60654
1.67477,-0.766623
-0.0480373,0.766285
0.779029,-0.475236
0.419751,-1.32948
0.735748,0.449858
0.752748,0.440842
1.50014,0.473977
-0.0901327,0.204784
1.71478,-1.33859
0.492497,1.28473
1.15117,-1.068
0.487697,-0.911158
-0.546966,-0.758839
-1.06443,-0.407639
0.494219,-0.897104
-0.0869925,0.489579
-0.824821,-0.241316
0.211493,-2.05187
0.184724,0.252573
1.10814,1.46977
0.158806,0.676468
-1.18322,0.674815
-0.897618,-0.432609
-0.583924,-2.45129
1.4001,-0.225863
-0.112395,-0.957052
-0.764917,-0.94491
-0.431663,0.0265212
0.0115911,-0.154205
-1.08071,1.87647
-0.0240819,-0.399344
0.359085,-0.410874
-0.170998,-2.02822
0.311612,2.244
0.570143,-2.13398
1.18291,-0.777376
-0.946343,-0.605842
0.404706,-0.0946841
-0.378501,-0.589355
-1.47441,1.28839
-1.85936,-0.443181
1.90845,-0.259434
0.0386623,0.327929
2.16615,-0.675249
0.913851,-0.0655582
0.514923,0.63321
0.324704,0.848575
-1.90119,-0.32256
1.18586,-0.642013
-1.90441,0.319647
-0.783876,0.10406
0.737805,-0.815922
1.81886,-0.888189
0.197149,0.0813312
-0.562693,0.255446
-0.393936,0.817895
2.12348,-0.560328
1.53149,2.41234
-1.28853,-1.30159
0.224174,-1.46621
-0.000438257,-0.670585
-0.516586,0.0938957
-0.367924,0.301169
0.444833,-2.76024
1.37426,-0.586341
-0.929568,-0.967649
0.847146,0.127189
1.36001,-1.64092
1.15638,-1.49535
0.895412,-1.214
-0.557233,-1.2434
1.63203,0.571007
0.896987,0.217497
0.221611,-0.687505
0.610382,-0.104713
-0.781259,-0.336587
-0.24641,0.211772
-1.8309,-1.49193
0.313131,1.42963
-0.113474,-0.198549
0.984418,0.253687
1.01985,0.890767
-0.344881,0.220435
0.207895,-1.81874
0.854659,-0.442638
-0.0732458,0.830915
0.493263,-0.489064
-0.409364,-0.668285
1.68072,-0.0623743
-0.236388,-1.16509
-0.801464,-0.526444
0.323161,-0.0442139
1.35207,2.22211
-0.432125,-0.496683
0.291263,1.36637
0.229723,-0.62048
0.580346,-0.343068
-1.01669,-1.41534
0.306303,-1.13541
-0.817878,-0.0981651
-0.379939,-0.311258
0.42582,0.0858412
0.223636,0.293951
0.228004,-1.40285
-1.94057,0.375061
0.694112,0.146314
1.14057,-0.173369
-0.198846,-0.931633
-0.11307,1.40131
-0.867266,0.3927
-2.58161,-2.29182
-0.597509,0.898579
-0.695219,-1.14883
-0.0308935,1.23892
-0.90152,0.00799858
1.22027,0.751095
-0.292712,0.789317
-0.334394,-0.732629
-0.434706,1.2477
-1.00691,-0.451638
-1.1218,-0.201292
0.429365,0.665684
0.26152,-1.10783
-2.27031,-0.39882
0.23954,-0.859587
-0.984599,-1.8976
-0.185433,0.499991
1.07038,-0.16349
0.251125,-0.634318
0.141507,1.65933
0.683491,0.125168
-1.05927,0.02416
-0.861069,1.48698
-0.303657,-0.0762473
0.578051,-1.11466
0.011498,-0.228965
-0.707204,-1.05115
0.0770668,-0.206957
0.365623,-0.438945
0.396061,1.43282
0.543485,-2.58273
0.36397,-0.628441
1.0089,-1.29565
1.32058,-0.443905
-0.557602,1.66235
0.461554,1.71145
1.32978,0.468569
0.417733,-0.992438
2.71639,-1.27991
-0.205915,-1.30149
0.301803,-0.335577
-0.728975,-0.652732
0.0315423,-0.518759
0.920828,-0.0872594
0.17692,0.596549
-1.34204,-0.935679
0.145654,0.323353
0.732379,1.59269
-2.10936,0.00606643
0.49155,0.167653
-0.623094,-0.02529
1.07138,0.549553
-1.99255,1.14479
0.871554,1.2743
-0.00810369,0.179961
0.148786,0.227452
0.0178188,1.63532
0.795411,-0.222182
0.454913,0.821244
1.32933,-0.0119652
0.411851,-0.00851905
-1.0488,-0.630844
1.05715,-1.20539
0.543854,-2.495
0.112703,0.152692
-1.35843,-1.374
0.198413,0.894096
0.746233,0.201712
0.587204,0.650195
-0.456172,-1.0053
-0.984496,0.728225
-1.21543,-0.417821
-0.871282,0.185013
0.485903,0.594506
-0.777245,-0.899248
-1.23444,0.405589
-0.648499,-0.407391
1.12987,0.944809
-1.08877,-1.06385
-0.571063,-0.0196021
-1.63427,1.45
-0.951944,-0.337993
-0.592822,-0.718007
-1.49448,-1.20813
-1.54119,1.29
-0.543375,-0.4258
-1.15329,1.40126
-0.727796,0.389509
-0.158456,-0.394636
1.06647,0.566259
-1.237,2.11899
0.116712,1.37199
-2.38118,-0.0692478
0.0305248,0.0441109
0.376046,0.732776
1.60526,0.0588772
-1.52777,0.393025
-0.0682428,0.554222
-0.846814,0.498377
-1.17772,-0.565264
-1.13496,-0.319969
0.638444,1.39069
1.51673,0.681016
0.801411,0.402298
0.0429631,-1.34096
0.0545363,0.310347
0.383356,-0.480426
-1.12724,-0.408215
-0.699815,0.289971
-0.0511412,-1.4269
0.628641,0.947817
-0.0133737,-0.290453
-0.732062,2.24076
0.00148378,-0.608988
-1.31662,-0.917075
0.73941,0.118045
0.0761103,0.0787235
-0.45587,-1.89632
-1.34882,1.43017
-1.32032,-1.16835
0.794127,1.56842
-1.12541,-0.592731
0.288711,1.67323
1.02004,-0.756462
-0.0154392,0.55716
2.09057,-0.546568
1.24763,1.3262
1.06161,-0.200716
-1.10024,-0.0175373
-0.833348,-0.119791
-0.898547,-1.46696
-0.337763,0.402499
0.130753,-0.196476
-2.00264,-0.63143
0.714542,0.183455
1.56726,-0.528384
1.72856,1.91503
-0.410233,-1.0632
0.721052,-0.769877
1.11123,0.402879
1.09239,-0.042139
0.827621,-0.441012
-0.978488,-0.502772
-0.0492556,-0.762343
-0.593418,0.993609
-0.235116,-0.366067
-0.26449,-0.0203592
-0.311564,2.93184
-0.34995,-0.152552
0.627873,0.381132
0.164587,-1.38063
0.111588,-0.784359
-1.73739,0.184589
-1.66739,-2.66808
-1.4584,-2.26206
1.04721,0.89262
1.30295,-1.45616
0.580054,-1.67974
0.513433,-0.38532
1.41193,-1.0379
-0.0837157,-1.40115
0.347141,-1.87537
-0.510213,0.105431
-0.051564,-0.356461
-0.628755,0.992551
0.166057,-1.26131
0.423379,0.789087
-0.890682,-0.522869
0.0106339,-0.773938
0.100488,0.105977
0.616232,-0.635057
-1.32542,0.407003
-0.0470078,2.11593
0.317385,-0.685777
-0.877918,0.472657
0.747729,0.496585
-0.882535,1.61361
1.23456,0.393371
-0.238853,1.71002
0.415859,0.0620972
-0.928902,0.819735
1.38531,0.894155
0.186645,-0.842053
-0.305311,-0.623859
1.1,1.31019
-0.137609,0.605035
0.25652,1.16472
0.0631702,-1.64023
-0.687502,-2.67986
0.284991,2.88302
-0.290108,0.226308
0.054455,-0.614206
-0.720429,0.613824
0.12197,0.269138
1.5387,0.992695
-0.075323,-0.781463
0.660789,0.422857
-2.00436,-1.19346
0.441573,0.196165
0.965896,1.19696
-0.308969,-0.0264889
1.34161,-1.48591
0.579915,-1.36643
1.51858,-0.000906535
0.931077,-0.229027
-0.753246,0.912534
1.82111,-0.156602
0.766133,1.0555
1.57879,-1.65963
-1.56105,0.631491
-0.639224,-0.0489091
-0.0752651,-0.84427
1.3967,0.165691
0.613458,-0.99491
-1.67229,1.25837
1.30121,-1.48169
-0.564427,0.31565
0.363449,0.547101
0.0673766,0.310261
-1.37892,0.375168
0.533604,-0.357239
-1.17382,-0.408507
-0.455614,1.87517
-0.398156,1.69014
-1.04253,0.680458
-1.68753,-1.70292
-2.32899,-0.662955
0.304322,0.921981
0.866404,-0.602732
-0.231578,0.0294924
0.906605,0.492686
-1.51289,-0.286498
1.31178,0.605036
0.134982,-0.0124088
-0.118698,0.0958912
-0.249317,-0.771511
-0.781813,-0.673823
0.0657598,0.337853
-1.125,2.72141
0.213846,0.00903334
-0.396665,1.25635
1.05817,0.737435
-0.570193,-0.523225
-0.478965,-0.321356
-0.52052,-0.713155
0.35534,0.885742
-0.184528,0.306629
-0.465236,-0.42631
-0.431044,0.597038
-0.259319,-2.0958
-0.0221303,-0.212762
-1.404,-0.954903
-0.946411,1.87156
0.287209,-0.729766
1.49065,-0.0501992
1.12662,-0.453967
-1.76719,-0.169259
0.0166494,-0.878853
-0.854944,-0.521347
-0.683219,-1.61271
-0.972271,1.63288
-0.476646,-1.23165
-0.730418,1.71181
-0.668302,0.440743
0.22243,-0.480043
-0.237638,0.5411
1.38147,0.495078
-0.564765,1.52173
-0.832749,0.250721
0.593404,-1.21083
0.850614,2.20942
-1.13635,-0.0709378
-0.243755,-0.774273
1.38834,0.373189
-0.246129,-1.61105
-2.09965,-0.519932
0.228285,0.891896
0.132446,-2.78991
0.726609,0.404689
2.20464,-0.394308
-0.525599,-1.9092
0.461432,1.94031
-1.14931,-0.743191
-0.247359,0.830626
-0.651562,-0.387377
0.528623,-1.52083
-0.450016,-0.983089
0.366004,-0.138568
0.549595,1.04998
1.50519,-0.409627
-0.205001,-1.70721
-1.40723,-0.097663
-0.148585,-0.41151
0.121541,0.438404
-1.05548,-1.06766
0.118078,0.265442
0.750757,-0.438829
-1.63037,0.653917
1.47814,0.00804369
-0.217851,0.450034
-0.483482,0.0689468
-0.712302,1.06257
0.545403,0.931627
-0.0458238,1.14565
0.714701,-0.403204
0.977859,0.265201
-0.0856187,-0.464795
-0.0814712,1.29229
-0.454734,0.412153
1.30323,-0.885005
1.13144,-1.35388
-0.314644,-1.23199
1.64994,0.191356
-1.01489,-0.402062
-1.05922,1.23603
-0.688066,0.279082
0.58967,0.228305
0.632317,0.36758
-0.182213,1.8028
-0.229095,1.95278
-1.48964,-1.02607
-0.719183,0.647285
0.0930202,1.08273
-0.123381,-1.79928
1.21656,0.304327
0.167793,-1.85979
-0.250324,-0.231815
0.929597,0.102604
-0.112074,1.71026
-0.182201,-0.434135
0.82036,1.69857
0.781817,-0.00609701
-1.21547,0.568881
-0.13517,-0.50794
-0.177968,-0.0304466
-0.751274,-0.494974
-1.32005,-0.320572
-2.30565,-2.07145
0.0922873,1.37293
0.695489,2.07996
-0.189021,-0.137959
-0.0561694,-1.51495
-0.670655,-0.99301
-0.592158,0.652023
-0.862959,-0.337205
-1.6315,0.226589
-0.280718,0.295316
-0.441771,-0.614615
0.609734,-0.692501
1.86033,-0.589301
-0.507434,0.301396
-0.176805,-0.211765
-0.0222438,-1.31174
0.838947,-0.437238
0.929819,0.809788
0.939163,2.2036
0.377578,0.747685
1.00026,-1.36542
-1.07558,-1.4348
0.368477,-0.79969
-1.83583,-0.0487701
0.268498,0.321721
-0.350237,1.54026
-0.892648,1.39665
0.295027,-0.785284
-0.629064,-0.405782
-0.960604,2.13513
-0.297349,-0.264384
2.38826,-1.75072
0.859782,0.182992
-0.375501,-0.649235
-1.04183,-0.302183
2.00444,0.586956
1.1184,1.30105
0.210155,0.576576
0.0952025,0.667301
-1.21893,1.54434
-1.17628,0.618962
-0.145383,-0.361945
-0.65431,1.64021
0.413263,-0.419517
-0.950311,0.275102
-1.39341,-0.401682
-1.23081,-0.204154
-0.593602,0.92213
0.191453,1.06809
1.51194,1.50718
-0.932385,0.537386
-0.3464,-0.562506
-0.423558,-1.39793
0.471708,-1.06088
0.0424865,1.79643
1.15417,0.363969
-0.748548,-0.777439
0.178634,-1.36642
1.71854,1.24759
0.720641,-0.951397
-1.1579,0.670022
-0.336102,0.623783
0.560883,1.04971
2.04,1.31884
-0.111161,0.273927
1.06844,1.26589
0.0719629,1.07
-0.667358,-0.923484
-0.448503,-1.27156
0.692118,-0.191594
-1.05121,2.07351
0.270947,0.636097
-1.05371,-0.772661
1.34192,1.63747
-0.351622,-0.103114
-0.480226,-1.67769
-0.806121,0.620901
0.275279,-0.55804
0.159213,0.221783
0.98917,-1.5362
-0.275974,-0.514414
0.107037,-0.575998
-0.0183689,-1.06346
0.670295,-1.81288
-0.0460344,0.117823
1.1074,-0.137866
-0.256809,-0.980397
1.49505,0.433909
-0.145197,-1.43146
0.65378,-1.15552
0.328404,-1.72324
-0.731658,-0.30779
-0.866595,1.05548
1.15282,0.872022
0.386984,-0.479434
1.56946,-0.479264
0.249495,1.26398
-1.3221,-0.345805
2.12275,-0.374342
0.652472,0.462668
0.259434,-1.21337
0.976953,1.85623
-3.00155,1.11869
-0.439706,-0.221821
0.306505,-0.0635381
-0.33981,1.07363
0.0238766,0.232431
-0.0639379,-0.518947
-0.303816,0.623633
0.492795,0.851382
-2.40233,0.224089
-1.70918,0.424808
-1.49835,0.865058
-0.793717,1.28151
0.0835106,1.82105
-0.678387,-1.16086
-0.308496,0.206159
-0.0770018,-1.80401
-0.768155,0.850946
-1.83621,1.43158
0.52222,-2.14175
-0.927941,0.528529
-0.500528,-0.557332
-0.391254,-0.872696
-0.63733,0.941903
1.48868,-0.671986
0.950021,0.125475
0.864042,0.424396
-0.0439494,0.279567
-0.374507,-0.0215435
0.54745,1.24529
0.510742,-1.06378
-1.57778,-0.116959
0.216893,-0.449949
1.03039,0.934709
0.0291631,-0.0936305
0.0597516,0.456098
-1.13911,0.0961253
0.974016,0.0199868
1.80209,0.827363
-2.00162,-0.444508
0.0718308,1.48896
-0.00480887,1.07461
0.395653,0.673195
-0.531611,0.727491
0.502635,-1.21269
-0.136008,-0.679985
1.19793,0.37401
-1.87141,0.220184
-0.894246,0.230499
0.393727,0.410628
-0.00821128,-1.23241
0.475636,-0.496877
0.238552,1.5625
-1.00693,-1.66821
-0.242788,-0.875142
0.519635,0.158503
1.06779,-1.30755
0.0241911,-0.547142
0.333104,-1.3073
-0.0157507,-0.967784
-0.45811,0.217472
0.31285,0.136142
0.541492,0.00762359
-0.00291131,-0.0670256
-0.939481,-1.02982
-1.20935,-1.30357
0.300954,-0.270868
0.715505,-1.09444
0.159955,-0.919066
0.14657,1.29056
-0.842471,-0.533039
0.590744,0.340586
-0.626439,0.129987
0.936081,-0.521283
-0.996635,-1.74813
1.02009,0.916474
1.55154,-0.369179
-0.0156021,-0.255792
-1.25389,-0.0866788
0.04364,-0.314476
0.144428,1.49761
-0.44822,-0.640573
-1.29233,-0.0757589
0.308841,-0.709429
-0.448044,-1.54421
-1.6473,-1.60627
0.825212,-0.769919
0.624054,-0.506161
-0.749357,-1.45895
0.695888,-0.422486
0.803528,2.13984
-0.398604,-0.589051
-1.09738,0.455345
-1.14546,-0.423679
-1.93592,-0.967868
0.193401,0.122352
1.71385,1.01078
0.753389,0.088088
-0.635606,-0.503715
0.360867,0.0276679
0.788689,-0.0272714
1.72704,0.535431
1.78915,-1.06644
0.184699,-1.6901
1.86084,0.10313
-0.32372,-1.33494
-2.63946,1.21394
0.416571,0.337579
-0.492782,1.52133
-0.728854,-0.713503
-0.430639,0.508025
-0.0678934,0.703982
0.466643,-0.248023
-0.622339,0.862165
0.921597,-1.75085
0.372139,1.15992
1.15217,0.401333
1.27341,0.118285
0.571266,1.71393
0.844422,0.290576
0.959967,-0.520025
0.785352,0.470875
1.00205,0.951637
0.337325,-3.12871
-1.38426,0.775644
-0.130899,0.185788
0.159294,0.794117
0.504475,-0.302082
-0.264019,0.171024
1.03784,0.442288
-0.850475,0.030486
-0.737101,-2.06361
-0.139418,-0.558496
-0.127684,0.236711
-0.655166,0.400787
1.29389,1.50245
0.15257,-0.715354
-0.787924,-0.58315
-0.790284,-1.45654
-0.632164,0.121894
2.10803,1.23563
-0.648671,0.290357
-1.06612,-1.64665
-0.426215,-1.27707
1.23428,1.26552
-0.117418,0.113703
-2.1665,-1.65215
-0.447879,0.5533
0.430128,2.1803
1.08288,0.703966
-0.433068,0.286861
-1.10339,0.316499
0.794144,-0.652834
-0.99637,-0.960889
0.775671,1.27063
-1.53343,-1.13325
3.06864,0.176351
0.639859,-0.603432
-0.788042,0.850041
-0.577475,1.0749
-0.477686,-0.274117
-0.490452,1.44975
0.59159,-1.20465
-0.553796,-0.39114
-0.00351582,1.52389
-0.755535,-2.46039
0.168966,0.573729
-1.27229,0.0671024
-1.77441,0.47556
-0.809106,2.09667
-0.154106,0.212494
1.48973,0.997821
-0.564141,1.07137
0.513912,-0.0490214
0.354428,1.3295
-0.57239,-0.224728
0.33616,1.1155
-0.301602,-0.394721
-0.734353,0.0442689
-0.606742,0.649837
0.886323,-0.641743
0.762397,-0.958687
2.70789,-0.00151117
0.231551,-1.47825
-1.50576,-1.5057
-0.419189,-0.385318
-1.06652,-1.61977
-1.32001,0.657281
-0.732012,-0.493543
-1.25596,1.90575
0.311752,1.14984
1.22631,3.41137
-1.0162,1.65845
2.09466,0.21278
-0.6771,-0.620732
0.800698,1.58732
-0.33151,-0.774682
-0.277552,-0.085063
0.11786,0.185584
1.08499,-1.00075
-1.50238,0.483491
-0.192546,0.530106
0.471657,1.03951
-1.18225,-1.17748
0.203427,-0.816313
0.65736,-0.976754
-0.800979,-0.373678
